LDA_Practice.knit
…
#Total rows
Data_tibble %>% summarize(Total_msgs = n())

## # A tibble: 1 x 1
##   Total_msgs
##        <int>
## 1      81335

#Let us tokenize and separate words of reviews

Data_review <- Data_tibble %>% 
  unnest_tokens(words, text)
Data_review

## # A tibble: 1,237,760 x 9
##    conversationId          timeL sentBy prev_text         prev_sentBy escalation
##    <chr>                   <dbl> <chr>  <chr>             <chr>            <dbl>
##  1 d1f1d0a5-e5de-45de~   1.62e12 Consu~ <NA>              <NA>                 0
##  2 d1f1d0a5-e5de-45de~   1.62e12 Agent  Help              Consumer             0
##  3 d1f1d0a5-e5de-45de~   1.62e12 Agent  Help              Consumer             0
##  4 d1f1d0a5-e5de-45de~   1.62e12 Agent  Help              Consumer             0
##  5 d1f1d0a5-e5de-45de~   1.62e12 Agent  Help              Consumer             0
##  6 d1f1d0a5-e5de-45de~   1.62e12 Agent  Help              Consumer             0
##  7 d1f1d0a5-e5de-45de~   1.62e12 Agent  Help              Consumer             0
##  8 d1f1d0a5-e5de-45de~   1.62e12 Agent  Help              Consumer             0
##  9 d1f1d0a5-e5de-45de~   1.62e12 Agent  ?? Hey there! I'~ Agent                0
## 10 d1f1d0a5-e5de-45de~   1.62e12 Agent  ?? Hey there! I'~ Agent                0
## # ... with 1,237,750 more rows, and 3 more variables: totalCharacters <dbl>,
## #   rank <dbl>, words <chr>

# least used words in reviews
Data_review %>% count(words) %>% arrange(n)

## # A tibble: 18,181 x 2
##    words                                        n
##    <chr>                                    <int>
##  1 ________________________________________     1
##  2 0.07                                         1
##  3 0.18                                         1
##  4 0.57                                         1
##  5 0.5mbps                                      1
##  6 0000                                         1
##  7 0000000000                                   1
##  8 0004                                         1
##  9 0005                                         1
## 10 00137135597                                  1
## # ... with 18,171 more rows

#Most used words in reviews
Data_review %>% count(words) %>% arrange(desc(n))

## # A tibble: 18,181 x 2
##    words     n
##    <chr> <int>
##  1 to    51828
##  2 you   45305
##  3 i     35454
##  4 your  31750
##  5 the   27854
##  6 a     23052
##  7 can   18047
##  8 for   15012
##  9 and   14319
## 10 me    13600
## # ... with 18,171 more rows

#As we notice, most often used words are useless filler words, lets remove them

Data_review2 <- Data_tibble %>% 
  unnest_tokens(output = word, input = text) %>%  #don't know why but can only use output = word, no other name here
  anti_join(stop_words)

## Joining, by = "word"

#Anti-join is opposite of join, it fishes out values of A that didn't match with B

#Notice how number of rows reduce drastically
Data_review2

## # A tibble: 451,777 x 9
##    conversationId          timeL sentBy prev_text         prev_sentBy escalation
##    <chr>                   <dbl> <chr>  <chr>             <chr>            <dbl>
##  1 d1f1d0a5-e5de-45de~   1.62e12 Agent  Help              Consumer             0
##  2 d1f1d0a5-e5de-45de~   1.62e12 Agent  Help              Consumer             0
##  3 d1f1d0a5-e5de-45de~   1.62e12 Agent  Help              Consumer             0
##  4 d1f1d0a5-e5de-45de~   1.62e12 Agent  Help              Consumer             0
##  5 d1f1d0a5-e5de-45de~   1.62e12 Agent  ?? Hey there! I'~ Agent                0
##  6 d1f1d0a5-e5de-45de~   1.62e12 Agent  ?? Hey there! I'~ Agent                0
##  7 d1f1d0a5-e5de-45de~   1.62e12 Agent  ?? Hey there! I'~ Agent                0
##  8 d1f1d0a5-e5de-45de~   1.62e12 Agent  ?? Hey there! I'~ Agent                0
##  9 d1f1d0a5-e5de-45de~   1.62e12 Agent  ?? Hey there! I'~ Agent                0
## 10 d1f1d0a5-e5de-45de~   1.62e12 Agent  ?? Hey there! I'~ Agent                0
## # ... with 451,767 more rows, and 3 more variables: totalCharacters <dbl>,
## #   rank <dbl>, word <chr>

#Most used imp words
Data_review2 %>% count(word) %>% arrange(desc(n))

## # A tibble: 17,545 x 2
##    word          n
##    <chr>     <int>
##  1 service    8406
##  2 account    8359
##  3 free       6189
##  4 optimum    5808
##  5 phone      5165
##  6 questions  4765
##  7 hey        4578
##  8 allie      4575
##  9 virtual    4542
## 10 assistant  4539
## # ... with 17,535 more rows

#least used imp words
Data_review2 %>% count(word) %>% arrange(n)

## # A tibble: 17,545 x 2
##    word                                         n
##    <chr>                                    <int>
##  1 ________________________________________     1
##  2 0.07                                         1
##  3 0.18                                         1
##  4 0.57                                         1
##  5 0.5mbps                                      1
##  6 0000                                         1
##  7 0000000000                                   1
##  8 0004                                         1
##  9 0005                                         1
## 10 00137135597                                  1
## # ... with 17,535 more rows

#Most used imp words by consumer
Data_review2 %>% filter(sentBy == 'Consumer') %>% count(word) %>% arrange(desc(n))

## # A tibble: 16,803 x 2
##    word         n
##    <chr>    <int>
##  1 service   3666
##  2 account   2456
##  3 optimum   2176
##  4 internet  1902
##  5 bill      1567
##  6 phone     1352
##  7 cable     1160
##  8 email     1046
##  9 tv        1010
## 10 call       828
## # ... with 16,793 more rows
…
stop_words

## # A tibble: 1,149 x 2
##    word        lexicon
##    <chr>       <chr>  
##  1 a           SMART  
##  2 a's         SMART  
##  3 able        SMART  
##  4 about       SMART  
##  5 above       SMART  
##  6 according   SMART  
##  7 accordingly SMART  
##  8 across      SMART  
##  9 actually    SMART  
## 10 after       SMART  
## # ... with 1,139 more rows

#As we don't like a few words, we make custom stop words now
custom_stop_words <- tribble(
  ~word, ~lexicon, 
  "service", "CUSTOM", 
  "account", "CUSTOM")

stop_words2 <- stop_words %>% 
  bind_rows(custom_stop_words)
stop_words2

## # A tibble: 1,151 x 2
##    word        lexicon
##    <chr>       <chr>  
##  1 a           SMART  
##  2 a's         SMART  
##  3 able        SMART  
##  4 about       SMART  
##  5 above       SMART  
##  6 according   SMART  
##  7 accordingly SMART  
##  8 across      SMART  
##  9 actually    SMART  
## 10 after       SMART  
## # ... with 1,141 more rows
…
#Using word cloud to show most used words

Data_review2 <- Data_tibble %>% 
  unnest_tokens(output = word, input = text) %>%    
  anti_join(stop_words2)

## Joining, by = "word"

abc <- Data_review2 %>% filter(sentBy == "Consumer") %>% count(word) %>% arrange(desc(n))
abc

## # A tibble: 16,801 x 2
##    word         n
##    <chr>    <int>
##  1 optimum   2176
##  2 internet  1902
##  3 bill      1567
##  4 phone     1352
##  5 cable     1160
##  6 email     1046
##  7 tv        1010
##  8 call       828
##  9 user       802
## 10 password   784
## # ... with 16,791 more rows
…
#For sentiment analysis, let's get some of saved ones
get_sentiments("bing")

## # A tibble: 6,786 x 2
##    word        sentiment
##    <chr>       <chr>    
##  1 2-faces     negative 
##  2 abnormal    negative 
##  3 abolish     negative 
##  4 abominable  negative 
##  5 abominably  negative 
##  6 abominate   negative 
##  7 abomination negative 
##  8 abort       negative 
##  9 aborted     negative 
## 10 aborts      negative 
## # ... with 6,776 more rows

#So we see more negative words than positive
get_sentiments("bing") %>% count(sentiment)

## # A tibble: 2 x 2
##   sentiment     n
##   <chr>     <int>
## 1 negative   4781
## 2 positive   2005

options(readr.default_locale=readr::locale(tz="Europe/Warsaw"))
get_sentiments("afinn")

## # A tibble: 2,477 x 2
##    word       value
##    <chr>      <dbl>
##  1 abandon       -2
##  2 abandoned     -2
##  3 abandons      -2
##  4 abducted      -2
##  5 abduction     -2
##  6 abductions    -2
##  7 abhor         -3
##  8 abhorred      -3
##  9 abhorrent     -3
## 10 abhors        -3
## # ... with 2,467 more rows
…
#install.Rtools(TRUE, FALSE, page_with_download_url = "https://cran.r-project.org/bin/windows/Rtools/")
#inst
#Sys.setenv(TZ = "Europe/Warsaw")

#Add this line to install and get over the TZ issue
options(readr.default_locale=readr::locale(tz="Europe/Warsaw"))
get_sentiments("nrc")

## # A tibble: 13,901 x 2
##    word        sentiment
##    <chr>       <chr>    
##  1 abacus      trust    
##  2 abandon     fear     
##  3 abandon     negative 
##  4 abandon     sadness  
##  5 abandoned   anger    
##  6 abandoned   fear     
##  7 abandoned   negative 
##  8 abandoned   sadness  
##  9 abandonment anger    
## 10 abandonment fear     
## # ... with 13,891 more rows
…
#Join to keep all rows where match was found
sentiment_review <- Data_review2 %>% inner_join(get_sentiments("bing"))

## Joining, by = "word"

sentiment_review

## # A tibble: 32,177 x 10
##    conversationId        timeL sentBy prev_text           prev_sentBy escalation
##    <chr>                 <dbl> <chr>  <chr>               <chr>            <dbl>
##  1 d1f1d0a5-e5de-45d~  1.62e12 Agent  "?? Hey there! I'm~ Agent                0
##  2 d1f1d0a5-e5de-45d~  1.62e12 Agent  "Internet"          Consumer             1
##  3 d1f1d0a5-e5de-45d~  1.62e12 Consu~ "Before I transfer~ Agent                1
##  4 d1f1d0a5-e5de-45d~  1.62e12 Agent  "Great! I\x92ll pa~ Agent                1
##  5 0bb7fdaa-967b-489~  1.62e12 Agent  "Sorry, I'm not qu~ Agent                0
##  6 0bb7fdaa-967b-489~  1.62e12 Consu~ "Feel free to ask ~ Agent                0
##  7 0bb7fdaa-967b-489~  1.62e12 Agent  "unless thank you ~ Consumer             0
##  8 0bb7fdaa-967b-489~  1.62e12 Agent  "unless thank you ~ Consumer             0
##  9 cafbf819-f7d6-49a~  1.62e12 Consu~  <NA>               <NA>                 0
## 10 cafbf819-f7d6-49a~  1.62e12 Agent  "Spam is generally~ Agent                0
## # ... with 32,167 more rows, and 4 more variables: totalCharacters <dbl>,
## #   rank <dbl>, word <chr>, sentiment <chr>
…
## Joining, by = "word"

Z %>% filter(rank == "1") 

## # A tibble: 1 x 3
##    rank negative positive
##   <dbl>    <int>    <int>
## 1     1     2722     1340

#Z %>% filter(is.na == FALSE) %>% summarise(sum = sum(Z$negative))
Z %>% mutate(overall_sentiment = positive - negative)

## # A tibble: 50 x 4
##     rank negative positive overall_sentiment
##    <dbl>    <int>    <int>             <int>
##  1     1     2722     1340             -1382
##  2     2       21       20                -1
##  3     3      115     7922              7807
##  4     4      786     1293               507
##  5     5      698     1781              1083
##  6     6      672      754                82
##  7     7      858      655              -203
##  8     8      809      419              -390
##  9     9      801      627              -174
## 10    10      684      495              -189
## # ... with 40 more rows
…
#as not much can be inferred this way, lets convert it to tidy

#install.packages("reshape2")

#This step is done to cast it into dtm and then tidy it up for better readability,

#take out as a matrix, the beta column so it can be represented graphically etc
lda_topics <- lda_out %>%
  tidy(matrix = "beta")
lda_topics %>% arrange(desc(beta))

## # A tibble: 67,204 x 3
##    topic term       beta
##    <int> <chr>     <dbl>
##  1     3 optimum  0.0692
##  2     2 internet 0.0594
##  3     1 bill     0.0491
##  4     4 phone    0.0399
##  5     2 cable    0.0360
##  6     3 email    0.0333
##  7     2 tv       0.0315
##  8     1 user     0.0251
##  9     3 password 0.0249
## 10     4 call     0.0246
## # ... with 67,194 more rows
…
